608
1.086000e+00 1.086000e+00 1.031700e+01
Si 2.715000e-01 0.000000e+00 0.000000e+00 6.788771e-05
Si 4.072500e-01 1.357500e-01 1.357500e-01 6.788771e-05
Si 0.000000e+00 2.715000e-01 0.000000e+00 6.788771e-05
Si 1.357500e-01 4.072500e-01 1.357500e-01 6.788771e-05
Si 0.000000e+00 0.000000e+00 2.715000e-01 6.788771e-05
Si 1.357500e-01 1.357500e-01 4.072500e-01 6.788771e-05
Si 2.715000e-01 2.715000e-01 2.715000e-01 6.788771e-05
Si 4.072500e-01 4.072500e-01 4.072500e-01 6.788771e-05
Si 2.715000e-01 0.000000e+00 5.430000e-01 6.788771e-05
Si 4.072500e-01 1.357500e-01 6.787500e-01 6.788771e-05
Si 0.000000e+00 2.715000e-01 5.430000e-01 6.788771e-05
Si 1.357500e-01 4.072500e-01 6.787500e-01 6.788771e-05
Si 0.000000e+00 0.000000e+00 8.145000e-01 6.788771e-05
Si 1.357500e-01 1.357500e-01 9.502500e-01 6.788771e-05
Si 2.715000e-01 2.715000e-01 8.145000e-01 6.788771e-05
Si 4.072500e-01 4.072500e-01 9.502500e-01 6.788771e-05
Si 2.715000e-01 0.000000e+00 1.086000e+00 6.788771e-05
Si 4.072500e-01 1.357500e-01 1.221750e+00 6.788771e-05
Si 0.000000e+00 2.715000e-01 1.086000e+00 6.788771e-05
Si 1.357500e-01 4.072500e-01 1.221750e+00 6.788771e-05
Si 0.000000e+00 0.000000e+00 1.357500e+00 6.788771e-05
Si 1.357500e-01 1.357500e-01 1.493250e+00 6.788771e-05
Si 2.715000e-01 2.715000e-01 1.357500e+00 6.788771e-05
Si 4.072500e-01 4.072500e-01 1.493250e+00 6.788771e-05
Si 2.715000e-01 0.000000e+00 1.629000e+00 6.788771e-05
Si 4.072500e-01 1.357500e-01 1.764750e+00 6.788771e-05
Si 0.000000e+00 2.715000e-01 1.629000e+00 6.788771e-05
Si 1.357500e-01 4.072500e-01 1.764750e+00 6.788771e-05
Si 0.000000e+00 0.000000e+00 1.900500e+00 6.788771e-05
Si 1.357500e-01 1.357500e-01 2.036250e+00 6.788771e-05
Si 2.715000e-01 2.715000e-01 1.900500e+00 6.788771e-05
Si 4.072500e-01 4.072500e-01 2.036250e+00 6.788771e-05
Si 2.715000e-01 0.000000e+00 2.172000e+00 6.788771e-05
Si 4.072500e-01 1.357500e-01 2.307750e+00 6.788771e-05
Si 0.000000e+00 2.715000e-01 2.172000e+00 6.788771e-05
Si 1.357500e-01 4.072500e-01 2.307750e+00 6.788771e-05
Si 0.000000e+00 0.000000e+00 2.443500e+00 6.788771e-05
Si 1.357500e-01 1.357500e-01 2.579250e+00 6.788771e-05
Si 2.715000e-01 2.715000e-01 2.443500e+00 6.788771e-05
Si 4.072500e-01 4.072500e-01 2.579250e+00 6.788771e-05
Si 2.715000e-01 0.000000e+00 2.715000e+00 6.788771e-05
Si 4.072500e-01 1.357500e-01 2.850750e+00 6.788771e-05
Si 0.000000e+00 2.715000e-01 2.715000e+00 6.788771e-05
Si 1.357500e-01 4.072500e-01 2.850750e+00 6.788771e-05
Si 0.000000e+00 0.000000e+00 2.986500e+00 6.788771e-05
Si 1.357500e-01 1.357500e-01 3.122250e+00 6.788771e-05
Si 2.715000e-01 2.715000e-01 2.986500e+00 6.788771e-05
Si 4.072500e-01 4.072500e-01 3.122250e+00 6.788771e-05
Si 2.715000e-01 0.000000e+00 3.258000e+00 6.788771e-05
Si 4.072500e-01 1.357500e-01 3.393750e+00 6.788771e-05
Si 0.000000e+00 2.715000e-01 3.258000e+00 6.788771e-05
Si 1.357500e-01 4.072500e-01 3.393750e+00 6.788771e-05
Si 0.000000e+00 0.000000e+00 3.529500e+00 6.788771e-05
Si 1.357500e-01 1.357500e-01 3.665250e+00 6.788771e-05
Si 2.715000e-01 2.715000e-01 3.529500e+00 6.788771e-05
Si 4.072500e-01 4.072500e-01 3.665250e+00 6.788771e-05
Si 2.715000e-01 0.000000e+00 3.801000e+00 6.788771e-05
Si 4.072500e-01 1.357500e-01 3.936750e+00 6.788771e-05
Si 0.000000e+00 2.715000e-01 3.801000e+00 6.788771e-05
Si 1.357500e-01 4.072500e-01 3.936750e+00 6.788771e-05
Si 0.000000e+00 0.000000e+00 4.072500e+00 6.788771e-05
Si 1.357500e-01 1.357500e-01 4.208250e+00 6.788771e-05
Si 2.715000e-01 2.715000e-01 4.072500e+00 6.788771e-05
Si 4.072500e-01 4.072500e-01 4.208250e+00 6.788771e-05
Si 2.715000e-01 0.000000e+00 4.344000e+00 6.788771e-05
Si 4.072500e-01 1.357500e-01 4.479750e+00 6.788771e-05
Si 0.000000e+00 2.715000e-01 4.344000e+00 6.788771e-05
Si 1.357500e-01 4.072500e-01 4.479750e+00 6.788771e-05
Si 0.000000e+00 0.000000e+00 4.615500e+00 6.788771e-05
Si 1.357500e-01 1.357500e-01 4.751250e+00 6.788771e-05
Si 2.715000e-01 2.715000e-01 4.615500e+00 6.788771e-05
Si 4.072500e-01 4.072500e-01 4.751250e+00 6.788771e-05
Si 2.715000e-01 0.000000e+00 4.887000e+00 6.788771e-05
Si 4.072500e-01 1.357500e-01 5.022750e+00 6.788771e-05
Si 0.000000e+00 2.715000e-01 4.887000e+00 6.788771e-05
Si 1.357500e-01 4.072500e-01 5.022750e+00 6.788771e-05
Si 0.000000e+00 0.000000e+00 5.158500e+00 6.788771e-05
Si 1.357500e-01 1.357500e-01 5.294250e+00 6.788771e-05
Si 2.715000e-01 2.715000e-01 5.158500e+00 6.788771e-05
Si 4.072500e-01 4.072500e-01 5.294250e+00 6.788771e-05
Si 2.715000e-01 0.000000e+00 5.430000e+00 6.788771e-05
Si 4.072500e-01 1.357500e-01 5.565750e+00 6.788771e-05
Si 0.000000e+00 2.715000e-01 5.430000e+00 6.788771e-05
Si 1.357500e-01 4.072500e-01 5.565750e+00 6.788771e-05
Si 0.000000e+00 0.000000e+00 5.701500e+00 6.788771e-05
Si 1.357500e-01 1.357500e-01 5.837250e+00 6.788771e-05
Si 2.715000e-01 2.715000e-01 5.701500e+00 6.788771e-05
Si 4.072500e-01 4.072500e-01 5.837250e+00 6.788771e-05
Si 2.715000e-01 0.000000e+00 5.973000e+00 6.788771e-05
Si 4.072500e-01 1.357500e-01 6.108750e+00 6.788771e-05
Si 0.000000e+00 2.715000e-01 5.973000e+00 6.788771e-05
Si 1.357500e-01 4.072500e-01 6.108750e+00 6.788771e-05
Si 0.000000e+00 0.000000e+00 6.244500e+00 6.788771e-05
Si 1.357500e-01 1.357500e-01 6.380250e+00 6.788771e-05
Si 2.715000e-01 2.715000e-01 6.244500e+00 6.788771e-05
Si 4.072500e-01 4.072500e-01 6.380250e+00 6.788771e-05
Si 2.715000e-01 0.000000e+00 6.516000e+00 6.788771e-05
Si 4.072500e-01 1.357500e-01 6.651750e+00 6.788771e-05
Si 0.000000e+00 2.715000e-01 6.516000e+00 6.788771e-05
Si 1.357500e-01 4.072500e-01 6.651750e+00 6.788771e-05
Si 0.000000e+00 0.000000e+00 6.787500e+00 6.788771e-05
Si 1.357500e-01 1.357500e-01 6.923250e+00 6.788771e-05
Si 2.715000e-01 2.715000e-01 6.787500e+00 6.788771e-05
Si 4.072500e-01 4.072500e-01 6.923250e+00 6.788771e-05
Si 2.715000e-01 0.000000e+00 7.059000e+00 6.788771e-05
Si 4.072500e-01 1.357500e-01 7.194750e+00 6.788771e-05
Si 0.000000e+00 2.715000e-01 7.059000e+00 6.788771e-05
Si 1.357500e-01 4.072500e-01 7.194750e+00 6.788771e-05
Si 0.000000e+00 0.000000e+00 7.330500e+00 6.788771e-05
Si 1.357500e-01 1.357500e-01 7.466250e+00 6.788771e-05
Si 2.715000e-01 2.715000e-01 7.330500e+00 6.788771e-05
Si 4.072500e-01 4.072500e-01 7.466250e+00 6.788771e-05
Si 2.715000e-01 0.000000e+00 7.602000e+00 6.788771e-05
Si 4.072500e-01 1.357500e-01 7.737750e+00 6.788771e-05
Si 0.000000e+00 2.715000e-01 7.602000e+00 6.788771e-05
Si 1.357500e-01 4.072500e-01 7.737750e+00 6.788771e-05
Si 0.000000e+00 0.000000e+00 7.873500e+00 6.788771e-05
Si 1.357500e-01 1.357500e-01 8.009250e+00 6.788771e-05
Si 2.715000e-01 2.715000e-01 7.873500e+00 6.788771e-05
Si 4.072500e-01 4.072500e-01 8.009250e+00 6.788771e-05
Si 2.715000e-01 0.000000e+00 8.145000e+00 6.788771e-05
Si 4.072500e-01 1.357500e-01 8.280750e+00 6.788771e-05
Si 0.000000e+00 2.715000e-01 8.145000e+00 6.788771e-05
Si 1.357500e-01 4.072500e-01 8.280750e+00 6.788771e-05
Si 0.000000e+00 0.000000e+00 8.416500e+00 6.788771e-05
Si 1.357500e-01 1.357500e-01 8.552250e+00 6.788771e-05
Si 2.715000e-01 2.715000e-01 8.416500e+00 6.788771e-05
Si 4.072500e-01 4.072500e-01 8.552250e+00 6.788771e-05
Si 2.715000e-01 0.000000e+00 8.688000e+00 6.788771e-05
Si 4.072500e-01 1.357500e-01 8.823750e+00 6.788771e-05
Si 0.000000e+00 2.715000e-01 8.688000e+00 6.788771e-05
Si 1.357500e-01 4.072500e-01 8.823750e+00 6.788771e-05
Si 0.000000e+00 0.000000e+00 8.959500e+00 6.788771e-05
Si 1.357500e-01 1.357500e-01 9.095250e+00 6.788771e-05
Si 2.715000e-01 2.715000e-01 8.959500e+00 6.788771e-05
Si 4.072500e-01 4.072500e-01 9.095250e+00 6.788771e-05
Si 2.715000e-01 0.000000e+00 9.231000e+00 6.788771e-05
Si 4.072500e-01 1.357500e-01 9.366750e+00 6.788771e-05
Si 0.000000e+00 2.715000e-01 9.231000e+00 6.788771e-05
Si 1.357500e-01 4.072500e-01 9.366750e+00 6.788771e-05
Si 0.000000e+00 0.000000e+00 9.502500e+00 6.788771e-05
Si 1.357500e-01 1.357500e-01 9.638250e+00 6.788771e-05
Si 2.715000e-01 2.715000e-01 9.502500e+00 6.788771e-05
Si 4.072500e-01 4.072500e-01 9.638250e+00 6.788771e-05
Si 2.715000e-01 0.000000e+00 9.774000e+00 6.788771e-05
Si 4.072500e-01 1.357500e-01 9.909750e+00 6.788771e-05
Si 0.000000e+00 2.715000e-01 9.774000e+00 6.788771e-05
Si 1.357500e-01 4.072500e-01 9.909750e+00 6.788771e-05
Si 0.000000e+00 0.000000e+00 1.004550e+01 6.788771e-05
Si 1.357500e-01 1.357500e-01 1.018125e+01 6.788771e-05
Si 2.715000e-01 2.715000e-01 1.004550e+01 6.788771e-05
Si 4.072500e-01 4.072500e-01 1.018125e+01 6.788771e-05
Si 2.715000e-01 5.430000e-01 0.000000e+00 6.788771e-05
Si 4.072500e-01 6.787500e-01 1.357500e-01 6.788771e-05
Si 0.000000e+00 8.145000e-01 0.000000e+00 6.788771e-05
Si 1.357500e-01 9.502500e-01 1.357500e-01 6.788771e-05
Si 0.000000e+00 5.430000e-01 2.715000e-01 6.788771e-05
Si 1.357500e-01 6.787500e-01 4.072500e-01 6.788771e-05
Si 2.715000e-01 8.145000e-01 2.715000e-01 6.788771e-05
Si 4.072500e-01 9.502500e-01 4.072500e-01 6.788771e-05
Si 2.715000e-01 5.430000e-01 5.430000e-01 6.788771e-05
Si 4.072500e-01 6.787500e-01 6.787500e-01 6.788771e-05
Si 0.000000e+00 8.145000e-01 5.430000e-01 6.788771e-05
Si 1.357500e-01 9.502500e-01 6.787500e-01 6.788771e-05
Si 0.000000e+00 5.430000e-01 8.145000e-01 6.788771e-05
Si 1.357500e-01 6.787500e-01 9.502500e-01 6.788771e-05
Si 2.715000e-01 8.145000e-01 8.145000e-01 6.788771e-05
Si 4.072500e-01 9.502500e-01 9.502500e-01 6.788771e-05
Si 2.715000e-01 5.430000e-01 1.086000e+00 6.788771e-05
Si 4.072500e-01 6.787500e-01 1.221750e+00 6.788771e-05
Si 0.000000e+00 8.145000e-01 1.086000e+00 6.788771e-05
Si 1.357500e-01 9.502500e-01 1.221750e+00 6.788771e-05
Si 0.000000e+00 5.430000e-01 1.357500e+00 6.788771e-05
Si 1.357500e-01 6.787500e-01 1.493250e+00 6.788771e-05
Si 2.715000e-01 8.145000e-01 1.357500e+00 6.788771e-05
Si 4.072500e-01 9.502500e-01 1.493250e+00 6.788771e-05
Si 2.715000e-01 5.430000e-01 1.629000e+00 6.788771e-05
Si 4.072500e-01 6.787500e-01 1.764750e+00 6.788771e-05
Si 0.000000e+00 8.145000e-01 1.629000e+00 6.788771e-05
Si 1.357500e-01 9.502500e-01 1.764750e+00 6.788771e-05
Si 0.000000e+00 5.430000e-01 1.900500e+00 6.788771e-05
Si 1.357500e-01 6.787500e-01 2.036250e+00 6.788771e-05
Si 2.715000e-01 8.145000e-01 1.900500e+00 6.788771e-05
Si 4.072500e-01 9.502500e-01 2.036250e+00 6.788771e-05
Si 2.715000e-01 5.430000e-01 2.172000e+00 6.788771e-05
Si 4.072500e-01 6.787500e-01 2.307750e+00 6.788771e-05
Si 0.000000e+00 8.145000e-01 2.172000e+00 6.788771e-05
Si 1.357500e-01 9.502500e-01 2.307750e+00 6.788771e-05
Si 0.000000e+00 5.430000e-01 2.443500e+00 6.788771e-05
Si 1.357500e-01 6.787500e-01 2.579250e+00 6.788771e-05
Si 2.715000e-01 8.145000e-01 2.443500e+00 6.788771e-05
Si 4.072500e-01 9.502500e-01 2.579250e+00 6.788771e-05
Si 2.715000e-01 5.430000e-01 2.715000e+00 6.788771e-05
Si 4.072500e-01 6.787500e-01 2.850750e+00 6.788771e-05
Si 0.000000e+00 8.145000e-01 2.715000e+00 6.788771e-05
Si 1.357500e-01 9.502500e-01 2.850750e+00 6.788771e-05
Si 0.000000e+00 5.430000e-01 2.986500e+00 6.788771e-05
Si 1.357500e-01 6.787500e-01 3.122250e+00 6.788771e-05
Si 2.715000e-01 8.145000e-01 2.986500e+00 6.788771e-05
Si 4.072500e-01 9.502500e-01 3.122250e+00 6.788771e-05
Si 2.715000e-01 5.430000e-01 3.258000e+00 6.788771e-05
Si 4.072500e-01 6.787500e-01 3.393750e+00 6.788771e-05
Si 0.000000e+00 8.145000e-01 3.258000e+00 6.788771e-05
Si 1.357500e-01 9.502500e-01 3.393750e+00 6.788771e-05
Si 0.000000e+00 5.430000e-01 3.529500e+00 6.788771e-05
Si 1.357500e-01 6.787500e-01 3.665250e+00 6.788771e-05
Si 2.715000e-01 8.145000e-01 3.529500e+00 6.788771e-05
Si 4.072500e-01 9.502500e-01 3.665250e+00 6.788771e-05
Si 2.715000e-01 5.430000e-01 3.801000e+00 6.788771e-05
Si 4.072500e-01 6.787500e-01 3.936750e+00 6.788771e-05
Si 0.000000e+00 8.145000e-01 3.801000e+00 6.788771e-05
Si 1.357500e-01 9.502500e-01 3.936750e+00 6.788771e-05
Si 0.000000e+00 5.430000e-01 4.072500e+00 6.788771e-05
Si 1.357500e-01 6.787500e-01 4.208250e+00 6.788771e-05
Si 2.715000e-01 8.145000e-01 4.072500e+00 6.788771e-05
Si 4.072500e-01 9.502500e-01 4.208250e+00 6.788771e-05
Si 2.715000e-01 5.430000e-01 4.344000e+00 6.788771e-05
Si 4.072500e-01 6.787500e-01 4.479750e+00 6.788771e-05
Si 0.000000e+00 8.145000e-01 4.344000e+00 6.788771e-05
Si 1.357500e-01 9.502500e-01 4.479750e+00 6.788771e-05
Si 0.000000e+00 5.430000e-01 4.615500e+00 6.788771e-05
Si 1.357500e-01 6.787500e-01 4.751250e+00 6.788771e-05
Si 2.715000e-01 8.145000e-01 4.615500e+00 6.788771e-05
Si 4.072500e-01 9.502500e-01 4.751250e+00 6.788771e-05
Si 2.715000e-01 5.430000e-01 4.887000e+00 6.788771e-05
Si 4.072500e-01 6.787500e-01 5.022750e+00 6.788771e-05
Si 0.000000e+00 8.145000e-01 4.887000e+00 6.788771e-05
Si 1.357500e-01 9.502500e-01 5.022750e+00 6.788771e-05
Si 0.000000e+00 5.430000e-01 5.158500e+00 6.788771e-05
Si 1.357500e-01 6.787500e-01 5.294250e+00 6.788771e-05
Si 2.715000e-01 8.145000e-01 5.158500e+00 6.788771e-05
Si 4.072500e-01 9.502500e-01 5.294250e+00 6.788771e-05
Si 2.715000e-01 5.430000e-01 5.430000e+00 6.788771e-05
Si 4.072500e-01 6.787500e-01 5.565750e+00 6.788771e-05
Si 0.000000e+00 8.145000e-01 5.430000e+00 6.788771e-05
Si 1.357500e-01 9.502500e-01 5.565750e+00 6.788771e-05
Si 0.000000e+00 5.430000e-01 5.701500e+00 6.788771e-05
Si 1.357500e-01 6.787500e-01 5.837250e+00 6.788771e-05
Si 2.715000e-01 8.145000e-01 5.701500e+00 6.788771e-05
Si 4.072500e-01 9.502500e-01 5.837250e+00 6.788771e-05
Si 2.715000e-01 5.430000e-01 5.973000e+00 6.788771e-05
Si 4.072500e-01 6.787500e-01 6.108750e+00 6.788771e-05
Si 0.000000e+00 8.145000e-01 5.973000e+00 6.788771e-05
Si 1.357500e-01 9.502500e-01 6.108750e+00 6.788771e-05
Si 0.000000e+00 5.430000e-01 6.244500e+00 6.788771e-05
Si 1.357500e-01 6.787500e-01 6.380250e+00 6.788771e-05
Si 2.715000e-01 8.145000e-01 6.244500e+00 6.788771e-05
Si 4.072500e-01 9.502500e-01 6.380250e+00 6.788771e-05
Si 2.715000e-01 5.430000e-01 6.516000e+00 6.788771e-05
Si 4.072500e-01 6.787500e-01 6.651750e+00 6.788771e-05
Si 0.000000e+00 8.145000e-01 6.516000e+00 6.788771e-05
Si 1.357500e-01 9.502500e-01 6.651750e+00 6.788771e-05
Si 0.000000e+00 5.430000e-01 6.787500e+00 6.788771e-05
Si 1.357500e-01 6.787500e-01 6.923250e+00 6.788771e-05
Si 2.715000e-01 8.145000e-01 6.787500e+00 6.788771e-05
Si 4.072500e-01 9.502500e-01 6.923250e+00 6.788771e-05
Si 2.715000e-01 5.430000e-01 7.059000e+00 6.788771e-05
Si 4.072500e-01 6.787500e-01 7.194750e+00 6.788771e-05
Si 0.000000e+00 8.145000e-01 7.059000e+00 6.788771e-05
Si 1.357500e-01 9.502500e-01 7.194750e+00 6.788771e-05
Si 0.000000e+00 5.430000e-01 7.330500e+00 6.788771e-05
Si 1.357500e-01 6.787500e-01 7.466250e+00 6.788771e-05
Si 2.715000e-01 8.145000e-01 7.330500e+00 6.788771e-05
Si 4.072500e-01 9.502500e-01 7.466250e+00 6.788771e-05
Si 2.715000e-01 5.430000e-01 7.602000e+00 6.788771e-05
Si 4.072500e-01 6.787500e-01 7.737750e+00 6.788771e-05
Si 0.000000e+00 8.145000e-01 7.602000e+00 6.788771e-05
Si 1.357500e-01 9.502500e-01 7.737750e+00 6.788771e-05
Si 0.000000e+00 5.430000e-01 7.873500e+00 6.788771e-05
Si 1.357500e-01 6.787500e-01 8.009250e+00 6.788771e-05
Si 2.715000e-01 8.145000e-01 7.873500e+00 6.788771e-05
Si 4.072500e-01 9.502500e-01 8.009250e+00 6.788771e-05
Si 2.715000e-01 5.430000e-01 8.145000e+00 6.788771e-05
Si 4.072500e-01 6.787500e-01 8.280750e+00 6.788771e-05
Si 0.000000e+00 8.145000e-01 8.145000e+00 6.788771e-05
Si 1.357500e-01 9.502500e-01 8.280750e+00 6.788771e-05
Si 0.000000e+00 5.430000e-01 8.416500e+00 6.788771e-05
Si 1.357500e-01 6.787500e-01 8.552250e+00 6.788771e-05
Si 2.715000e-01 8.145000e-01 8.416500e+00 6.788771e-05
Si 4.072500e-01 9.502500e-01 8.552250e+00 6.788771e-05
Si 2.715000e-01 5.430000e-01 8.688000e+00 6.788771e-05
Si 4.072500e-01 6.787500e-01 8.823750e+00 6.788771e-05
Si 0.000000e+00 8.145000e-01 8.688000e+00 6.788771e-05
Si 1.357500e-01 9.502500e-01 8.823750e+00 6.788771e-05
Si 0.000000e+00 5.430000e-01 8.959500e+00 6.788771e-05
Si 1.357500e-01 6.787500e-01 9.095250e+00 6.788771e-05
Si 2.715000e-01 8.145000e-01 8.959500e+00 6.788771e-05
Si 4.072500e-01 9.502500e-01 9.095250e+00 6.788771e-05
Si 2.715000e-01 5.430000e-01 9.231000e+00 6.788771e-05
Si 4.072500e-01 6.787500e-01 9.366750e+00 6.788771e-05
Si 0.000000e+00 8.145000e-01 9.231000e+00 6.788771e-05
Si 1.357500e-01 9.502500e-01 9.366750e+00 6.788771e-05
Si 0.000000e+00 5.430000e-01 9.502500e+00 6.788771e-05
Si 1.357500e-01 6.787500e-01 9.638250e+00 6.788771e-05
Si 2.715000e-01 8.145000e-01 9.502500e+00 6.788771e-05
Si 4.072500e-01 9.502500e-01 9.638250e+00 6.788771e-05
Si 2.715000e-01 5.430000e-01 9.774000e+00 6.788771e-05
Si 4.072500e-01 6.787500e-01 9.909750e+00 6.788771e-05
Si 0.000000e+00 8.145000e-01 9.774000e+00 6.788771e-05
Si 1.357500e-01 9.502500e-01 9.909750e+00 6.788771e-05
Si 0.000000e+00 5.430000e-01 1.004550e+01 6.788771e-05
Si 1.357500e-01 6.787500e-01 1.018125e+01 6.788771e-05
Si 2.715000e-01 8.145000e-01 1.004550e+01 6.788771e-05
Si 4.072500e-01 9.502500e-01 1.018125e+01 6.788771e-05
Si 8.145000e-01 0.000000e+00 0.000000e+00 6.788771e-05
Si 9.502500e-01 1.357500e-01 1.357500e-01 6.788771e-05
Si 5.430000e-01 2.715000e-01 0.000000e+00 6.788771e-05
Si 6.787500e-01 4.072500e-01 1.357500e-01 6.788771e-05
Si 5.430000e-01 0.000000e+00 2.715000e-01 6.788771e-05
Si 6.787500e-01 1.357500e-01 4.072500e-01 6.788771e-05
Si 8.145000e-01 2.715000e-01 2.715000e-01 6.788771e-05
Si 9.502500e-01 4.072500e-01 4.072500e-01 6.788771e-05
Si 8.145000e-01 0.000000e+00 5.430000e-01 6.788771e-05
Si 9.502500e-01 1.357500e-01 6.787500e-01 6.788771e-05
Si 5.430000e-01 2.715000e-01 5.430000e-01 6.788771e-05
Si 6.787500e-01 4.072500e-01 6.787500e-01 6.788771e-05
Si 5.430000e-01 0.000000e+00 8.145000e-01 6.788771e-05
Si 6.787500e-01 1.357500e-01 9.502500e-01 6.788771e-05
Si 8.145000e-01 2.715000e-01 8.145000e-01 6.788771e-05
Si 9.502500e-01 4.072500e-01 9.502500e-01 6.788771e-05
Si 8.145000e-01 0.000000e+00 1.086000e+00 6.788771e-05
Si 9.502500e-01 1.357500e-01 1.221750e+00 6.788771e-05
Si 5.430000e-01 2.715000e-01 1.086000e+00 6.788771e-05
Si 6.787500e-01 4.072500e-01 1.221750e+00 6.788771e-05
Si 5.430000e-01 0.000000e+00 1.357500e+00 6.788771e-05
Si 6.787500e-01 1.357500e-01 1.493250e+00 6.788771e-05
Si 8.145000e-01 2.715000e-01 1.357500e+00 6.788771e-05
Si 9.502500e-01 4.072500e-01 1.493250e+00 6.788771e-05
Si 8.145000e-01 0.000000e+00 1.629000e+00 6.788771e-05
Si 9.502500e-01 1.357500e-01 1.764750e+00 6.788771e-05
Si 5.430000e-01 2.715000e-01 1.629000e+00 6.788771e-05
Si 6.787500e-01 4.072500e-01 1.764750e+00 6.788771e-05
Si 5.430000e-01 0.000000e+00 1.900500e+00 6.788771e-05
Si 6.787500e-01 1.357500e-01 2.036250e+00 6.788771e-05
Si 8.145000e-01 2.715000e-01 1.900500e+00 6.788771e-05
Si 9.502500e-01 4.072500e-01 2.036250e+00 6.788771e-05
Si 8.145000e-01 0.000000e+00 2.172000e+00 6.788771e-05
Si 9.502500e-01 1.357500e-01 2.307750e+00 6.788771e-05
Si 5.430000e-01 2.715000e-01 2.172000e+00 6.788771e-05
Si 6.787500e-01 4.072500e-01 2.307750e+00 6.788771e-05
Si 5.430000e-01 0.000000e+00 2.443500e+00 6.788771e-05
Si 6.787500e-01 1.357500e-01 2.579250e+00 6.788771e-05
Si 8.145000e-01 2.715000e-01 2.443500e+00 6.788771e-05
Si 9.502500e-01 4.072500e-01 2.579250e+00 6.788771e-05
Si 8.145000e-01 0.000000e+00 2.715000e+00 6.788771e-05
Si 9.502500e-01 1.357500e-01 2.850750e+00 6.788771e-05
Si 5.430000e-01 2.715000e-01 2.715000e+00 6.788771e-05
Si 6.787500e-01 4.072500e-01 2.850750e+00 6.788771e-05
Si 5.430000e-01 0.000000e+00 2.986500e+00 6.788771e-05
Si 6.787500e-01 1.357500e-01 3.122250e+00 6.788771e-05
Si 8.145000e-01 2.715000e-01 2.986500e+00 6.788771e-05
Si 9.502500e-01 4.072500e-01 3.122250e+00 6.788771e-05
Si 8.145000e-01 0.000000e+00 3.258000e+00 6.788771e-05
Si 9.502500e-01 1.357500e-01 3.393750e+00 6.788771e-05
Si 5.430000e-01 2.715000e-01 3.258000e+00 6.788771e-05
Si 6.787500e-01 4.072500e-01 3.393750e+00 6.788771e-05
Si 5.430000e-01 0.000000e+00 3.529500e+00 6.788771e-05
Si 6.787500e-01 1.357500e-01 3.665250e+00 6.788771e-05
Si 8.145000e-01 2.715000e-01 3.529500e+00 6.788771e-05
Si 9.502500e-01 4.072500e-01 3.665250e+00 6.788771e-05
Si 8.145000e-01 0.000000e+00 3.801000e+00 6.788771e-05
Si 9.502500e-01 1.357500e-01 3.936750e+00 6.788771e-05
Si 5.430000e-01 2.715000e-01 3.801000e+00 6.788771e-05
Si 6.787500e-01 4.072500e-01 3.936750e+00 6.788771e-05
Si 5.430000e-01 0.000000e+00 4.072500e+00 6.788771e-05
Si 6.787500e-01 1.357500e-01 4.208250e+00 6.788771e-05
Si 8.145000e-01 2.715000e-01 4.072500e+00 6.788771e-05
Si 9.502500e-01 4.072500e-01 4.208250e+00 6.788771e-05
Si 8.145000e-01 0.000000e+00 4.344000e+00 6.788771e-05
Si 9.502500e-01 1.357500e-01 4.479750e+00 6.788771e-05
Si 5.430000e-01 2.715000e-01 4.344000e+00 6.788771e-05
Si 6.787500e-01 4.072500e-01 4.479750e+00 6.788771e-05
Si 5.430000e-01 0.000000e+00 4.615500e+00 6.788771e-05
Si 6.787500e-01 1.357500e-01 4.751250e+00 6.788771e-05
Si 8.145000e-01 2.715000e-01 4.615500e+00 6.788771e-05
Si 9.502500e-01 4.072500e-01 4.751250e+00 6.788771e-05
Si 8.145000e-01 0.000000e+00 4.887000e+00 6.788771e-05
Si 9.502500e-01 1.357500e-01 5.022750e+00 6.788771e-05
Si 5.430000e-01 2.715000e-01 4.887000e+00 6.788771e-05
Si 6.787500e-01 4.072500e-01 5.022750e+00 6.788771e-05
Si 5.430000e-01 0.000000e+00 5.158500e+00 6.788771e-05
Si 6.787500e-01 1.357500e-01 5.294250e+00 6.788771e-05
Si 8.145000e-01 2.715000e-01 5.158500e+00 6.788771e-05
Si 9.502500e-01 4.072500e-01 5.294250e+00 6.788771e-05
Si 8.145000e-01 0.000000e+00 5.430000e+00 6.788771e-05
Si 9.502500e-01 1.357500e-01 5.565750e+00 6.788771e-05
Si 5.430000e-01 2.715000e-01 5.430000e+00 6.788771e-05
Si 6.787500e-01 4.072500e-01 5.565750e+00 6.788771e-05
Si 5.430000e-01 0.000000e+00 5.701500e+00 6.788771e-05
Si 6.787500e-01 1.357500e-01 5.837250e+00 6.788771e-05
Si 8.145000e-01 2.715000e-01 5.701500e+00 6.788771e-05
Si 9.502500e-01 4.072500e-01 5.837250e+00 6.788771e-05
Si 8.145000e-01 0.000000e+00 5.973000e+00 6.788771e-05
Si 9.502500e-01 1.357500e-01 6.108750e+00 6.788771e-05
Si 5.430000e-01 2.715000e-01 5.973000e+00 6.788771e-05
Si 6.787500e-01 4.072500e-01 6.108750e+00 6.788771e-05
Si 5.430000e-01 0.000000e+00 6.244500e+00 6.788771e-05
Si 6.787500e-01 1.357500e-01 6.380250e+00 6.788771e-05
Si 8.145000e-01 2.715000e-01 6.244500e+00 6.788771e-05
Si 9.502500e-01 4.072500e-01 6.380250e+00 6.788771e-05
Si 8.145000e-01 0.000000e+00 6.516000e+00 6.788771e-05
Si 9.502500e-01 1.357500e-01 6.651750e+00 6.788771e-05
Si 5.430000e-01 2.715000e-01 6.516000e+00 6.788771e-05
Si 6.787500e-01 4.072500e-01 6.651750e+00 6.788771e-05
Si 5.430000e-01 0.000000e+00 6.787500e+00 6.788771e-05
Si 6.787500e-01 1.357500e-01 6.923250e+00 6.788771e-05
Si 8.145000e-01 2.715000e-01 6.787500e+00 6.788771e-05
Si 9.502500e-01 4.072500e-01 6.923250e+00 6.788771e-05
Si 8.145000e-01 0.000000e+00 7.059000e+00 6.788771e-05
Si 9.502500e-01 1.357500e-01 7.194750e+00 6.788771e-05
Si 5.430000e-01 2.715000e-01 7.059000e+00 6.788771e-05
Si 6.787500e-01 4.072500e-01 7.194750e+00 6.788771e-05
Si 5.430000e-01 0.000000e+00 7.330500e+00 6.788771e-05
Si 6.787500e-01 1.357500e-01 7.466250e+00 6.788771e-05
Si 8.145000e-01 2.715000e-01 7.330500e+00 6.788771e-05
Si 9.502500e-01 4.072500e-01 7.466250e+00 6.788771e-05
Si 8.145000e-01 0.000000e+00 7.602000e+00 6.788771e-05
Si 9.502500e-01 1.357500e-01 7.737750e+00 6.788771e-05
Si 5.430000e-01 2.715000e-01 7.602000e+00 6.788771e-05
Si 6.787500e-01 4.072500e-01 7.737750e+00 6.788771e-05
Si 5.430000e-01 0.000000e+00 7.873500e+00 6.788771e-05
Si 6.787500e-01 1.357500e-01 8.009250e+00 6.788771e-05
Si 8.145000e-01 2.715000e-01 7.873500e+00 6.788771e-05
Si 9.502500e-01 4.072500e-01 8.009250e+00 6.788771e-05
Si 8.145000e-01 0.000000e+00 8.145000e+00 6.788771e-05
Si 9.502500e-01 1.357500e-01 8.280750e+00 6.788771e-05
Si 5.430000e-01 2.715000e-01 8.145000e+00 6.788771e-05
Si 6.787500e-01 4.072500e-01 8.280750e+00 6.788771e-05
Si 5.430000e-01 0.000000e+00 8.416500e+00 6.788771e-05
Si 6.787500e-01 1.357500e-01 8.552250e+00 6.788771e-05
Si 8.145000e-01 2.715000e-01 8.416500e+00 6.788771e-05
Si 9.502500e-01 4.072500e-01 8.552250e+00 6.788771e-05
Si 8.145000e-01 0.000000e+00 8.688000e+00 6.788771e-05
Si 9.502500e-01 1.357500e-01 8.823750e+00 6.788771e-05
Si 5.430000e-01 2.715000e-01 8.688000e+00 6.788771e-05
Si 6.787500e-01 4.072500e-01 8.823750e+00 6.788771e-05
Si 5.430000e-01 0.000000e+00 8.959500e+00 6.788771e-05
Si 6.787500e-01 1.357500e-01 9.095250e+00 6.788771e-05
Si 8.145000e-01 2.715000e-01 8.959500e+00 6.788771e-05
Si 9.502500e-01 4.072500e-01 9.095250e+00 6.788771e-05
Si 8.145000e-01 0.000000e+00 9.231000e+00 6.788771e-05
Si 9.502500e-01 1.357500e-01 9.366750e+00 6.788771e-05
Si 5.430000e-01 2.715000e-01 9.231000e+00 6.788771e-05
Si 6.787500e-01 4.072500e-01 9.366750e+00 6.788771e-05
Si 5.430000e-01 0.000000e+00 9.502500e+00 6.788771e-05
Si 6.787500e-01 1.357500e-01 9.638250e+00 6.788771e-05
Si 8.145000e-01 2.715000e-01 9.502500e+00 6.788771e-05
Si 9.502500e-01 4.072500e-01 9.638250e+00 6.788771e-05
Si 8.145000e-01 0.000000e+00 9.774000e+00 6.788771e-05
Si 9.502500e-01 1.357500e-01 9.909750e+00 6.788771e-05
Si 5.430000e-01 2.715000e-01 9.774000e+00 6.788771e-05
Si 6.787500e-01 4.072500e-01 9.909750e+00 6.788771e-05
Si 5.430000e-01 0.000000e+00 1.004550e+01 6.788771e-05
Si 6.787500e-01 1.357500e-01 1.018125e+01 6.788771e-05
Si 8.145000e-01 2.715000e-01 1.004550e+01 6.788771e-05
Si 9.502500e-01 4.072500e-01 1.018125e+01 6.788771e-05
Si 8.145000e-01 5.430000e-01 0.000000e+00 6.788771e-05
Si 9.502500e-01 6.787500e-01 1.357500e-01 6.788771e-05
Si 5.430000e-01 8.145000e-01 0.000000e+00 6.788771e-05
Si 6.787500e-01 9.502500e-01 1.357500e-01 6.788771e-05
Si 5.430000e-01 5.430000e-01 2.715000e-01 6.788771e-05
Si 6.787500e-01 6.787500e-01 4.072500e-01 6.788771e-05
Si 8.145000e-01 8.145000e-01 2.715000e-01 6.788771e-05
Si 9.502500e-01 9.502500e-01 4.072500e-01 6.788771e-05
Si 8.145000e-01 5.430000e-01 5.430000e-01 6.788771e-05
Si 9.502500e-01 6.787500e-01 6.787500e-01 6.788771e-05
Si 5.430000e-01 8.145000e-01 5.430000e-01 6.788771e-05
Si 6.787500e-01 9.502500e-01 6.787500e-01 6.788771e-05
Si 5.430000e-01 5.430000e-01 8.145000e-01 6.788771e-05
Si 6.787500e-01 6.787500e-01 9.502500e-01 6.788771e-05
Si 8.145000e-01 8.145000e-01 8.145000e-01 6.788771e-05
Si 9.502500e-01 9.502500e-01 9.502500e-01 6.788771e-05
Si 8.145000e-01 5.430000e-01 1.086000e+00 6.788771e-05
Si 9.502500e-01 6.787500e-01 1.221750e+00 6.788771e-05
Si 5.430000e-01 8.145000e-01 1.086000e+00 6.788771e-05
Si 6.787500e-01 9.502500e-01 1.221750e+00 6.788771e-05
Si 5.430000e-01 5.430000e-01 1.357500e+00 6.788771e-05
Si 6.787500e-01 6.787500e-01 1.493250e+00 6.788771e-05
Si 8.145000e-01 8.145000e-01 1.357500e+00 6.788771e-05
Si 9.502500e-01 9.502500e-01 1.493250e+00 6.788771e-05
Si 8.145000e-01 5.430000e-01 1.629000e+00 6.788771e-05
Si 9.502500e-01 6.787500e-01 1.764750e+00 6.788771e-05
Si 5.430000e-01 8.145000e-01 1.629000e+00 6.788771e-05
Si 6.787500e-01 9.502500e-01 1.764750e+00 6.788771e-05
Si 5.430000e-01 5.430000e-01 1.900500e+00 6.788771e-05
Si 6.787500e-01 6.787500e-01 2.036250e+00 6.788771e-05
Si 8.145000e-01 8.145000e-01 1.900500e+00 6.788771e-05
Si 9.502500e-01 9.502500e-01 2.036250e+00 6.788771e-05
Si 8.145000e-01 5.430000e-01 2.172000e+00 6.788771e-05
Si 9.502500e-01 6.787500e-01 2.307750e+00 6.788771e-05
Si 5.430000e-01 8.145000e-01 2.172000e+00 6.788771e-05
Si 6.787500e-01 9.502500e-01 2.307750e+00 6.788771e-05
Si 5.430000e-01 5.430000e-01 2.443500e+00 6.788771e-05
Si 6.787500e-01 6.787500e-01 2.579250e+00 6.788771e-05
Si 8.145000e-01 8.145000e-01 2.443500e+00 6.788771e-05
Si 9.502500e-01 9.502500e-01 2.579250e+00 6.788771e-05
Si 8.145000e-01 5.430000e-01 2.715000e+00 6.788771e-05
Si 9.502500e-01 6.787500e-01 2.850750e+00 6.788771e-05
Si 5.430000e-01 8.145000e-01 2.715000e+00 6.788771e-05
Si 6.787500e-01 9.502500e-01 2.850750e+00 6.788771e-05
Si 5.430000e-01 5.430000e-01 2.986500e+00 6.788771e-05
Si 6.787500e-01 6.787500e-01 3.122250e+00 6.788771e-05
Si 8.145000e-01 8.145000e-01 2.986500e+00 6.788771e-05
Si 9.502500e-01 9.502500e-01 3.122250e+00 6.788771e-05
Si 8.145000e-01 5.430000e-01 3.258000e+00 6.788771e-05
Si 9.502500e-01 6.787500e-01 3.393750e+00 6.788771e-05
Si 5.430000e-01 8.145000e-01 3.258000e+00 6.788771e-05
Si 6.787500e-01 9.502500e-01 3.393750e+00 6.788771e-05
Si 5.430000e-01 5.430000e-01 3.529500e+00 6.788771e-05
Si 6.787500e-01 6.787500e-01 3.665250e+00 6.788771e-05
Si 8.145000e-01 8.145000e-01 3.529500e+00 6.788771e-05
Si 9.502500e-01 9.502500e-01 3.665250e+00 6.788771e-05
Si 8.145000e-01 5.430000e-01 3.801000e+00 6.788771e-05
Si 9.502500e-01 6.787500e-01 3.936750e+00 6.788771e-05
Si 5.430000e-01 8.145000e-01 3.801000e+00 6.788771e-05
Si 6.787500e-01 9.502500e-01 3.936750e+00 6.788771e-05
Si 5.430000e-01 5.430000e-01 4.072500e+00 6.788771e-05
Si 6.787500e-01 6.787500e-01 4.208250e+00 6.788771e-05
Si 8.145000e-01 8.145000e-01 4.072500e+00 6.788771e-05
Si 9.502500e-01 9.502500e-01 4.208250e+00 6.788771e-05
Si 8.145000e-01 5.430000e-01 4.344000e+00 6.788771e-05
Si 9.502500e-01 6.787500e-01 4.479750e+00 6.788771e-05
Si 5.430000e-01 8.145000e-01 4.344000e+00 6.788771e-05
Si 6.787500e-01 9.502500e-01 4.479750e+00 6.788771e-05
Si 5.430000e-01 5.430000e-01 4.615500e+00 6.788771e-05
Si 6.787500e-01 6.787500e-01 4.751250e+00 6.788771e-05
Si 8.145000e-01 8.145000e-01 4.615500e+00 6.788771e-05
Si 9.502500e-01 9.502500e-01 4.751250e+00 6.788771e-05
Si 8.145000e-01 5.430000e-01 4.887000e+00 6.788771e-05
Si 9.502500e-01 6.787500e-01 5.022750e+00 6.788771e-05
Si 5.430000e-01 8.145000e-01 4.887000e+00 6.788771e-05
Si 6.787500e-01 9.502500e-01 5.022750e+00 6.788771e-05
Si 5.430000e-01 5.430000e-01 5.158500e+00 6.788771e-05
Si 6.787500e-01 6.787500e-01 5.294250e+00 6.788771e-05
Si 8.145000e-01 8.145000e-01 5.158500e+00 6.788771e-05
Si 9.502500e-01 9.502500e-01 5.294250e+00 6.788771e-05
Si 8.145000e-01 5.430000e-01 5.430000e+00 6.788771e-05
Si 9.502500e-01 6.787500e-01 5.565750e+00 6.788771e-05
Si 5.430000e-01 8.145000e-01 5.430000e+00 6.788771e-05
Si 6.787500e-01 9.502500e-01 5.565750e+00 6.788771e-05
Si 5.430000e-01 5.430000e-01 5.701500e+00 6.788771e-05
Si 6.787500e-01 6.787500e-01 5.837250e+00 6.788771e-05
Si 8.145000e-01 8.145000e-01 5.701500e+00 6.788771e-05
Si 9.502500e-01 9.502500e-01 5.837250e+00 6.788771e-05
Si 8.145000e-01 5.430000e-01 5.973000e+00 6.788771e-05
Si 9.502500e-01 6.787500e-01 6.108750e+00 6.788771e-05
Si 5.430000e-01 8.145000e-01 5.973000e+00 6.788771e-05
Si 6.787500e-01 9.502500e-01 6.108750e+00 6.788771e-05
Si 5.430000e-01 5.430000e-01 6.244500e+00 6.788771e-05
Si 6.787500e-01 6.787500e-01 6.380250e+00 6.788771e-05
Si 8.145000e-01 8.145000e-01 6.244500e+00 6.788771e-05
Si 9.502500e-01 9.502500e-01 6.380250e+00 6.788771e-05
Si 8.145000e-01 5.430000e-01 6.516000e+00 6.788771e-05
Si 9.502500e-01 6.787500e-01 6.651750e+00 6.788771e-05
Si 5.430000e-01 8.145000e-01 6.516000e+00 6.788771e-05
Si 6.787500e-01 9.502500e-01 6.651750e+00 6.788771e-05
Si 5.430000e-01 5.430000e-01 6.787500e+00 6.788771e-05
Si 6.787500e-01 6.787500e-01 6.923250e+00 6.788771e-05
Si 8.145000e-01 8.145000e-01 6.787500e+00 6.788771e-05
Si 9.502500e-01 9.502500e-01 6.923250e+00 6.788771e-05
Si 8.145000e-01 5.430000e-01 7.059000e+00 6.788771e-05
Si 9.502500e-01 6.787500e-01 7.194750e+00 6.788771e-05
Si 5.430000e-01 8.145000e-01 7.059000e+00 6.788771e-05
Si 6.787500e-01 9.502500e-01 7.194750e+00 6.788771e-05
Si 5.430000e-01 5.430000e-01 7.330500e+00 6.788771e-05
Si 6.787500e-01 6.787500e-01 7.466250e+00 6.788771e-05
Si 8.145000e-01 8.145000e-01 7.330500e+00 6.788771e-05
Si 9.502500e-01 9.502500e-01 7.466250e+00 6.788771e-05
Si 8.145000e-01 5.430000e-01 7.602000e+00 6.788771e-05
Si 9.502500e-01 6.787500e-01 7.737750e+00 6.788771e-05
Si 5.430000e-01 8.145000e-01 7.602000e+00 6.788771e-05
Si 6.787500e-01 9.502500e-01 7.737750e+00 6.788771e-05
Si 5.430000e-01 5.430000e-01 7.873500e+00 6.788771e-05
Si 6.787500e-01 6.787500e-01 8.009250e+00 6.788771e-05
Si 8.145000e-01 8.145000e-01 7.873500e+00 6.788771e-05
Si 9.502500e-01 9.502500e-01 8.009250e+00 6.788771e-05
Si 8.145000e-01 5.430000e-01 8.145000e+00 6.788771e-05
Si 9.502500e-01 6.787500e-01 8.280750e+00 6.788771e-05
Si 5.430000e-01 8.145000e-01 8.145000e+00 6.788771e-05
Si 6.787500e-01 9.502500e-01 8.280750e+00 6.788771e-05
Si 5.430000e-01 5.430000e-01 8.416500e+00 6.788771e-05
Si 6.787500e-01 6.787500e-01 8.552250e+00 6.788771e-05
Si 8.145000e-01 8.145000e-01 8.416500e+00 6.788771e-05
Si 9.502500e-01 9.502500e-01 8.552250e+00 6.788771e-05
Si 8.145000e-01 5.430000e-01 8.688000e+00 6.788771e-05
Si 9.502500e-01 6.787500e-01 8.823750e+00 6.788771e-05
Si 5.430000e-01 8.145000e-01 8.688000e+00 6.788771e-05
Si 6.787500e-01 9.502500e-01 8.823750e+00 6.788771e-05
Si 5.430000e-01 5.430000e-01 8.959500e+00 6.788771e-05
Si 6.787500e-01 6.787500e-01 9.095250e+00 6.788771e-05
Si 8.145000e-01 8.145000e-01 8.959500e+00 6.788771e-05
Si 9.502500e-01 9.502500e-01 9.095250e+00 6.788771e-05
Si 8.145000e-01 5.430000e-01 9.231000e+00 6.788771e-05
Si 9.502500e-01 6.787500e-01 9.366750e+00 6.788771e-05
Si 5.430000e-01 8.145000e-01 9.231000e+00 6.788771e-05
Si 6.787500e-01 9.502500e-01 9.366750e+00 6.788771e-05
Si 5.430000e-01 5.430000e-01 9.502500e+00 6.788771e-05
Si 6.787500e-01 6.787500e-01 9.638250e+00 6.788771e-05
Si 8.145000e-01 8.145000e-01 9.502500e+00 6.788771e-05
Si 9.502500e-01 9.502500e-01 9.638250e+00 6.788771e-05
Si 8.145000e-01 5.430000e-01 9.774000e+00 6.788771e-05
Si 9.502500e-01 6.787500e-01 9.909750e+00 6.788771e-05
Si 5.430000e-01 8.145000e-01 9.774000e+00 6.788771e-05
Si 6.787500e-01 9.502500e-01 9.909750e+00 6.788771e-05
Si 5.430000e-01 5.430000e-01 1.004550e+01 6.788771e-05
Si 6.787500e-01 6.787500e-01 1.018125e+01 6.788771e-05
Si 8.145000e-01 8.145000e-01 1.004550e+01 6.788771e-05
Si 9.502500e-01 9.502500e-01 1.018125e+01 6.788771e-05
